{
	"for loop": {
		"prefix": "for",
		"body": [
			"for (int ${1:index}=${2:lower}; ${1:index}<${3:upper}; ${1:index}${4:incrdecr})",
			"{",
			"\t$0",
			"}"
		],
		"description": "for loop"
	},
    "if statement": {
        "prefix": "if",
        "body": [
            "if ${1:condition}",
            "\t$0",
            "}"
        ],
        "description": "if statement"
    },
    "if-else statement": {
        "prefix": "if-else",
        "body": [
            "if (${1:condition})",
            "\t$2",
            "else",
            "\t$3",
            "}"
        ],
        "description": "if-else statement"
    },
    "if-elseif-else statement": {
        "prefix": "if-elif-el",
        "body": [
            "if (${1:condition})",
            "\t$2",
            "else if (${3:condition})",
            "\t$4",
            "else",
            "\t$5",
            "}"
        ],
        "description": "if-elseif-else statement"
    },
	"subroutine": {
		"prefix": "sub",
		"body": [
			"void ${1:name}()",
			"\t$0",
			"}"
		],
		"description": "subroutine"
	},
	"function": {
		"prefix": "fun",
		"body": [
			"${1:type} ${2:name}()",
			"\t$0",
			"\treturn ${3:returnvalue}",
			"}"
		],
		"description": "function"
	},
	"switch case": {
		"prefix": "swi",
		"body": [
			"switch (${1:switch})",
			"{",
			"\tcase ${2:case}:",
			"\t\t$0;",
			"}"
		],
		"description": "switch case"
	},
	"while loop": {
		"prefix": "while",
		"body": [
			"while(${1:condition})",
			"{",
			"\t$0",
			"}"
		],
		"description": "while loop"
	},
	"do loop": {
		"prefix": "do",
		"body": [
			"do",
			"{",
			"\t$0",
			"} while(${1:condition})"
		],
		"description": "do loop"
	}
}