{
	"$schema": "https://raw.githubusercontent.com/martinring/tmlanguage/master/tmlanguage.json",
	"name": "JSharp",
	"patterns": [
		{
			"include": "#parentheses"
		},
		{
			"include": "#brackets"
		},
		{
			"include": "#comments"
		},
		{
			"include": "#operators"
		},
		{
			"name": "support.function.jsharp",
			"match": "(?i:(?:(\\b[a-zA-Z_][a-zA-Z0-9_]*?\\b)\\.)?(\\b[a-zA-Z_][a-zA-Z0-9_]*?\\b)(?=\\(\\)?))",
			"captures": {
				"1": {
					"name": "entity.name.type.class.jsharp"
				},
				"2": {
					"name": "entity.name.function.jsharp"
				}
			}
		},
		{
			"name": "support.variable.jsharp",
			"match": "(?i:(\\b[a-zA-Z_][a-zA-Z0-9_]*?\\b)\\.(\\b[a-zA-Z_][a-zA-Z0-9_]*?\\b))",
			"captures": {
				"1": {
					"name": "entity.name.type.class.jsharp"
				},
				"2": {
					"name": "variable.other.jsharp"
				}
			}
		},
		{
			"name": "meta.function.jsharp",
			"match": "^\\s*([a-zA-Z_]\\w*)\\b",
			"captures": {
				"1": {
					"name": "keyword.control.jsharp"
				},
				"2": {
					"name": "variable.other.sub.jsharp"
				}
			}
		},
		{
			"name": "keyword.control.jsharp",
			"match": "\\b(?i:abstract|break|case|catch|class|const|continue|default|delegate|do|else|enum|extends|false|final|finally|for|if|implements|import|instanceof|interface|multicast|native|new|null|package|private|protected|public|return|static|super|switch|synchronized|this|throw|throws|transient|true|try|value|void|volatile|while)\\b"
		},
		{
			"name": "string.quoted.double.jsharp",
			"match": "\".*?\""
		},
		{
			"name": "constant.numeric",
			"match": "\\b(0|[1-9]\\d*)(\\.[0-9]+)?\\b"
		}
	],
	"repository": {
		"parentheses": {
			"name": "meta.parentheses.jsharp",
			"begin": "\\(",
			"beginCaptures": {
				"0": {
					"name": "punctuation.parentheses.begin.jsharp"
				}
			},
			"end": "\\)",
			"endCaptures": {
				"0": {
					"name": "punctuation.parentheses.end.jsharp"
				}
			},
			"patterns": [
				{
					"include": "source.jsharp"
				}
			]
		},
		"brackets": {
			"name": "meta.brackets.jsharp",
			"begin": "\\[",
			"beginCaptures": {
				"0": {
					"name": "punctuation.brackets.begin.jsharp"
				}
			},
			"end": "\\]",
			"endCaptures": {
				"0": {
					"name": "punctuation.brackets.end.jsharp"
				}
			},
			"patterns": [
				{
					"include": "source.jsharp"
				}
			]
		},
		"comments": {
			"patterns": [
				{
					"name": "comment.line.double-slash.jsharp",
					"match": "//.*"
				},
				{
					"name": "comment.block.jsharp",
					"begin": "/\\*",
					"end": "\\*/"
				}
			]
		},
		"operators": {
			"patterns": [
				{
					"name": "keyword.operator.arithmetic.jsharp",
					"match": "\\+|\\-|\\*|\\/|\\%"
				},
				{
					"name": "keyword.operator.comparison.jsharp",
					"match": ">|<|=|>=|<=|!="
				},
				{
					"name": "keyword.operator.logical.jsharp",
					"match": "\\b(?i:&|\\||&&|\\|\\||\\!|\\^|\\~)\\b"
				}
			]
		}
	},
	"scopeName": "source.jsharp"
}